[{
    "id": 1,
    "title": "Year of Foundation",
    "image_url": "https://cdn-icons-png.flaticon.com/512/3474/3474032.png",
    "value":1801
}, {
    "id": 2,
    "title": "Hectares",
    "image_url": "https://cdn-icons-png.flaticon.com/512/4350/4350287.png",
    "value": 20094
}, {
    "id": 3,
    "title": "Population",
    "image_url": "https://cdn-icons-png.flaticon.com/512/5075/5075400.png",
    "value": 105190
}]